eeschema (22-Jun-2014 BZR 4027)-stable  >> Creation date: mar 09 feb 2016 11:09:59 CET
#Cmp ( order = Reference )
| D1         LED         
| P1         CONN_2      
| P2         CONN_2      
| P3         CONN_6      
| Q1         NPN         
| R1         10K         
| R2         10K         
| R3         10K         
| R4         10K         
| R5         10K         
| R6         1K          
| R7         10K         
| RL1        RZ03-1C4-D005
| SW1        SW_RESET    
| SW2        SW_PROGRAM  
| T1         220 VAC 5 VDC
| U1         SPX2920M3-3.3
| U2         ESP866_ESP-12E
#End Cmp

#Componentes ( orden = Valor )
| LED          D1        
| CONN_2       P1        
| CONN_2       P2        
| CONN_6       P3        
| NPN          Q1        
| 1K           R6        
| 10K          R1        
| 10K          R2        
| 10K          R3        
| 10K          R4        
| 10K          R5        
| 10K          R7        
| RZ03-1C4-D005 RL1       
| SW_RESET     SW1       
| SW_PROGRAM   SW2       
| 220 VAC 5 VDC T1        
| SPX2920M3-3.3 U1        
| ESP866_ESP-12E U2        
#Fin Componentes

#Fin de Lista
