(kicad_pcb (version 3) (host pcbnew "(22-Jun-2014 BZR 4027)-stable")

  (general
    (links 40)
    (no_connects 0)
    (area 24.4856 22.292734 125.3744 59.740001)
    (thickness 1.6)
    (drawings 6)
    (tracks 217)
    (zones 0)
    (modules 18)
    (nets 19)
  )

  (page A3)
  (layers
    (15 F.Cu signal)
    (0 B.Cu signal)
    (16 B.Adhes user)
    (17 F.Adhes user)
    (18 B.Paste user)
    (19 F.Paste user)
    (20 B.SilkS user)
    (21 F.SilkS user)
    (22 B.Mask user)
    (23 F.Mask user)
    (24 Dwgs.User user)
    (25 Cmts.User user)
    (26 Eco1.User user)
    (27 Eco2.User user)
    (28 Edge.Cuts user)
  )

  (setup
    (last_trace_width 3)
    (user_trace_width 0.75)
    (user_trace_width 1)
    (user_trace_width 1.5)
    (user_trace_width 2)
    (user_trace_width 2.5)
    (user_trace_width 3)
    (user_trace_width 4)
    (user_trace_width 5)
    (trace_clearance 0.254)
    (zone_clearance 0.508)
    (zone_45_only no)
    (trace_min 0.254)
    (segment_width 0.2)
    (edge_width 0.1)
    (via_size 0.889)
    (via_drill 0.635)
    (via_min_size 0.889)
    (via_min_drill 0.508)
    (user_via 1.5 0.8)
    (user_via 2 1)
    (user_via 2.7 1.5)
    (user_via 3 1.5)
    (uvia_size 0.508)
    (uvia_drill 0.127)
    (uvias_allowed no)
    (uvia_min_size 0.508)
    (uvia_min_drill 0.127)
    (pcb_text_width 0.3)
    (pcb_text_size 1.5 1.5)
    (mod_edge_width 0.15)
    (mod_text_size 1 1)
    (mod_text_width 0.15)
    (pad_size 1.5 1.5)
    (pad_drill 0.6)
    (pad_to_mask_clearance 0)
    (aux_axis_origin 0 0)
    (visible_elements FFFFFFBF)
    (pcbplotparams
      (layerselection 268468225)
      (usegerberextensions true)
      (excludeedgelayer true)
      (linewidth 0.150000)
      (plotframeref false)
      (viasonmask false)
      (mode 1)
      (useauxorigin false)
      (hpglpennumber 1)
      (hpglpenspeed 20)
      (hpglpendiameter 15)
      (hpglpenoverlay 2)
      (psnegative false)
      (psa4output false)
      (plotreference true)
      (plotvalue true)
      (plotothertext true)
      (plotinvisibletext false)
      (padsonsilk false)
      (subtractmaskfromsilk false)
      (outputformat 1)
      (mirror false)
      (drillshape 0)
      (scaleselection 1)
      (outputdirectory gerber/))
  )

  (net 0 "")
  (net 1 /3.3Vcc)
  (net 2 /5Vcc)
  (net 3 /AC_L)
  (net 4 /AC_Lout)
  (net 5 /AC_N)
  (net 6 /ESP_RX)
  (net 7 /ESP_TX)
  (net 8 /GND)
  (net 9 /LED)
  (net 10 /RELAY)
  (net 11 N-0000010)
  (net 12 N-0000016)
  (net 13 N-0000017)
  (net 14 N-0000018)
  (net 15 N-000002)
  (net 16 N-0000025)
  (net 17 N-000003)
  (net 18 N-000009)

  (net_class Default "This is the default net class."
    (clearance 0.254)
    (trace_width 0.254)
    (via_dia 0.889)
    (via_drill 0.635)
    (uvia_dia 0.508)
    (uvia_drill 0.127)
    (add_net "")
    (add_net /3.3Vcc)
    (add_net /5Vcc)
    (add_net /AC_L)
    (add_net /AC_Lout)
    (add_net /AC_N)
    (add_net /ESP_RX)
    (add_net /ESP_TX)
    (add_net /GND)
    (add_net /LED)
    (add_net /RELAY)
    (add_net N-0000010)
    (add_net N-0000016)
    (add_net N-0000017)
    (add_net N-0000018)
    (add_net N-000002)
    (add_net N-0000025)
    (add_net N-000003)
    (add_net N-000009)
  )

  (module TO92-123 (layer F.Cu) (tedit 4C5F51CE) (tstamp 569E0098)
    (at 80.01 51.562 270)
    (descr "Transistor TO92 brochage type BC237")
    (tags "TR TO92")
    (path /569CE3EE)
    (fp_text reference Q1 (at -1.27 3.81 270) (layer F.SilkS)
      (effects (font (size 1.016 1.016) (thickness 0.2032)))
    )
    (fp_text value NPN (at -1.27 -5.08 270) (layer F.SilkS)
      (effects (font (size 1.016 1.016) (thickness 0.2032)))
    )
    (fp_line (start -1.27 2.54) (end 2.54 -1.27) (layer F.SilkS) (width 0.3048))
    (fp_line (start 2.54 -1.27) (end 2.54 -2.54) (layer F.SilkS) (width 0.3048))
    (fp_line (start 2.54 -2.54) (end 1.27 -3.81) (layer F.SilkS) (width 0.3048))
    (fp_line (start 1.27 -3.81) (end -1.27 -3.81) (layer F.SilkS) (width 0.3048))
    (fp_line (start -1.27 -3.81) (end -3.81 -1.27) (layer F.SilkS) (width 0.3048))
    (fp_line (start -3.81 -1.27) (end -3.81 1.27) (layer F.SilkS) (width 0.3048))
    (fp_line (start -3.81 1.27) (end -2.54 2.54) (layer F.SilkS) (width 0.3048))
    (fp_line (start -2.54 2.54) (end -1.27 2.54) (layer F.SilkS) (width 0.3048))
    (pad 3 thru_hole rect (at 1.27 -1.27 270) (size 1.397 1.397) (drill 0.8128)
      (layers *.Cu *.Mask F.SilkS)
      (net 11 N-0000010)
    )
    (pad 2 thru_hole circle (at -1.27 -1.27 270) (size 1.397 1.397) (drill 0.8128)
      (layers *.Cu *.Mask F.SilkS)
      (net 18 N-000009)
    )
    (pad 1 thru_hole circle (at -1.27 1.27 270) (size 1.397 1.397) (drill 0.8128)
      (layers *.Cu *.Mask F.SilkS)
      (net 8 /GND)
    )
    (model discret/to98.wrl
      (at (xyz 0 0 0))
      (scale (xyz 1 1 1))
      (rotate (xyz 0 0 0))
    )
  )

  (module TO220_VERT_123 (layer F.Cu) (tedit 569D053F) (tstamp 569E00A6)
    (at 60.198 45.72 90)
    (descr "Regulateur TO220 serie LM78xx")
    (tags "TR TO220")
    (path /569CE45E)
    (fp_text reference U1 (at -3.175 0 180) (layer F.SilkS)
      (effects (font (size 1.524 1.016) (thickness 0.2032)))
    )
    (fp_text value SPX2920M3-3.3 (at 0.635 -6.35 90) (layer F.SilkS)
      (effects (font (size 1.524 1.016) (thickness 0.2032)))
    )
    (fp_line (start 1.905 -5.08) (end 2.54 -5.08) (layer F.SilkS) (width 0.381))
    (fp_line (start 2.54 -5.08) (end 2.54 5.08) (layer F.SilkS) (width 0.381))
    (fp_line (start 2.54 5.08) (end 1.905 5.08) (layer F.SilkS) (width 0.381))
    (fp_line (start -1.905 -5.08) (end 1.905 -5.08) (layer F.SilkS) (width 0.381))
    (fp_line (start 1.905 -5.08) (end 1.905 5.08) (layer F.SilkS) (width 0.381))
    (fp_line (start 1.905 5.08) (end -1.905 5.08) (layer F.SilkS) (width 0.381))
    (fp_line (start -1.905 5.08) (end -1.905 -5.08) (layer F.SilkS) (width 0.381))
    (pad 3 thru_hole circle (at 0 -2.54 90) (size 1.778 1.778) (drill 1.016)
      (layers *.Cu *.Mask F.SilkS)
      (net 1 /3.3Vcc)
    )
    (pad 2 thru_hole circle (at 0 0 90) (size 1.778 1.778) (drill 1.016)
      (layers *.Cu *.Mask F.SilkS)
      (net 8 /GND)
    )
    (pad 1 thru_hole rect (at 0 2.54 90) (size 1.778 1.778) (drill 1.016)
      (layers *.Cu *.Mask F.SilkS)
      (net 2 /5Vcc)
    )
  )

  (module SW_PUSH_SMALL (layer F.Cu) (tedit 46544DB3) (tstamp 569E00B3)
    (at 60.198 51.816 180)
    (path /569CE40C)
    (fp_text reference SW1 (at 0 -0.762 180) (layer F.SilkS)
      (effects (font (size 1.016 1.016) (thickness 0.2032)))
    )
    (fp_text value SW_RESET (at 0 1.016 180) (layer F.SilkS)
      (effects (font (size 1.016 1.016) (thickness 0.2032)))
    )
    (fp_circle (center 0 0) (end 0 -2.54) (layer F.SilkS) (width 0.127))
    (fp_line (start -3.81 -3.81) (end 3.81 -3.81) (layer F.SilkS) (width 0.127))
    (fp_line (start 3.81 -3.81) (end 3.81 3.81) (layer F.SilkS) (width 0.127))
    (fp_line (start 3.81 3.81) (end -3.81 3.81) (layer F.SilkS) (width 0.127))
    (fp_line (start -3.81 -3.81) (end -3.81 3.81) (layer F.SilkS) (width 0.127))
    (pad 1 thru_hole circle (at 3.81 -2.54 180) (size 1.397 1.397) (drill 0.8128)
      (layers *.Cu *.Mask F.SilkS)
      (net 8 /GND)
    )
    (pad 2 thru_hole circle (at 3.81 2.54 180) (size 1.397 1.397) (drill 0.8128)
      (layers *.Cu *.Mask F.SilkS)
      (net 13 N-0000017)
    )
    (pad 1 thru_hole circle (at -3.81 -2.54 180) (size 1.397 1.397) (drill 0.8128)
      (layers *.Cu *.Mask F.SilkS)
      (net 8 /GND)
    )
    (pad 2 thru_hole circle (at -3.81 2.54 180) (size 1.397 1.397) (drill 0.8128)
      (layers *.Cu *.Mask F.SilkS)
      (net 13 N-0000017)
    )
  )

  (module SW_PUSH_SMALL (layer F.Cu) (tedit 46544DB3) (tstamp 569E00C0)
    (at 43.434 51.562)
    (path /569CE41B)
    (fp_text reference SW2 (at 0 -0.762) (layer F.SilkS)
      (effects (font (size 1.016 1.016) (thickness 0.2032)))
    )
    (fp_text value SW_PROGRAM (at 0 1.016) (layer F.SilkS)
      (effects (font (size 1.016 1.016) (thickness 0.2032)))
    )
    (fp_circle (center 0 0) (end 0 -2.54) (layer F.SilkS) (width 0.127))
    (fp_line (start -3.81 -3.81) (end 3.81 -3.81) (layer F.SilkS) (width 0.127))
    (fp_line (start 3.81 -3.81) (end 3.81 3.81) (layer F.SilkS) (width 0.127))
    (fp_line (start 3.81 3.81) (end -3.81 3.81) (layer F.SilkS) (width 0.127))
    (fp_line (start -3.81 -3.81) (end -3.81 3.81) (layer F.SilkS) (width 0.127))
    (pad 1 thru_hole circle (at 3.81 -2.54) (size 1.397 1.397) (drill 0.8128)
      (layers *.Cu *.Mask F.SilkS)
      (net 14 N-0000018)
    )
    (pad 2 thru_hole circle (at 3.81 2.54) (size 1.397 1.397) (drill 0.8128)
      (layers *.Cu *.Mask F.SilkS)
      (net 8 /GND)
    )
    (pad 1 thru_hole circle (at -3.81 -2.54) (size 1.397 1.397) (drill 0.8128)
      (layers *.Cu *.Mask F.SilkS)
      (net 14 N-0000018)
    )
    (pad 2 thru_hole circle (at -3.81 2.54) (size 1.397 1.397) (drill 0.8128)
      (layers *.Cu *.Mask F.SilkS)
      (net 8 /GND)
    )
  )

  (module RELAY-2 (layer F.Cu) (tedit 56695659) (tstamp 569E00D0)
    (at 88.646 44.196)
    (path /569CD021)
    (fp_text reference RL1 (at 5.715 10.541) (layer F.SilkS)
      (effects (font (size 1 1) (thickness 0.15)))
    )
    (fp_text value RZ03-1C4-D005 (at 5.969 1.016) (layer F.SilkS)
      (effects (font (size 1 1) (thickness 0.15)))
    )
    (fp_line (start -4.064 11.811) (end -4.064 -0.762) (layer F.SilkS) (width 0.15))
    (fp_line (start -4.064 -0.762) (end 26.416 -0.762) (layer F.SilkS) (width 0.15))
    (fp_line (start 26.416 -0.762) (end 26.416 11.811) (layer F.SilkS) (width 0.15))
    (fp_line (start 26.416 11.811) (end -4.064 11.811) (layer F.SilkS) (width 0.15))
    (pad 1 thru_hole circle (at -1.524 1.778) (size 2.7 2.7) (drill 1.5)
      (layers *.Cu *.Mask F.SilkS)
      (net 2 /5Vcc)
    )
    (pad 2 thru_hole circle (at -1.524 9.271) (size 2.7 2.7) (drill 1.5)
      (layers *.Cu *.Mask F.SilkS)
      (net 11 N-0000010)
    )
    (pad 11 thru_hole circle (at 18.796 9.271) (size 2.7 2.7) (drill 1.5)
      (layers *.Cu *.Mask F.SilkS)
      (net 3 /AC_L)
    )
    (pad 12 thru_hole circle (at 13.716 9.271) (size 2.7 2.7) (drill 1.5)
      (layers *.Cu *.Mask F.SilkS)
    )
    (pad 14 thru_hole circle (at 23.876 9.271) (size 2.7 2.7) (drill 1.5)
      (layers *.Cu *.Mask F.SilkS)
      (net 4 /AC_Lout)
    )
    (pad 11 thru_hole circle (at 18.796 1.778) (size 2.7 2.7) (drill 1.5)
      (layers *.Cu *.Mask F.SilkS)
      (net 3 /AC_L)
    )
    (pad 12 thru_hole circle (at 13.716 1.778) (size 2.7 2.7) (drill 1.5)
      (layers *.Cu *.Mask F.SilkS)
    )
    (pad 14 thru_hole circle (at 23.876 1.778) (size 2.7 2.7) (drill 1.5)
      (layers *.Cu *.Mask F.SilkS)
      (net 4 /AC_Lout)
    )
  )

  (module R1 (layer F.Cu) (tedit 200000) (tstamp 569E00D8)
    (at 51.816 50.292 180)
    (descr "Resistance verticale")
    (tags R)
    (path /569CE394)
    (autoplace_cost90 10)
    (autoplace_cost180 10)
    (fp_text reference R2 (at -1.016 2.54 180) (layer F.SilkS)
      (effects (font (size 1.397 1.27) (thickness 0.2032)))
    )
    (fp_text value 10K (at -1.143 2.54 180) (layer F.SilkS) hide
      (effects (font (size 1.397 1.27) (thickness 0.2032)))
    )
    (fp_line (start -1.27 0) (end 1.27 0) (layer F.SilkS) (width 0.381))
    (fp_circle (center -1.27 0) (end -0.635 1.27) (layer F.SilkS) (width 0.381))
    (pad 1 thru_hole circle (at -1.27 0 180) (size 1.397 1.397) (drill 0.8128)
      (layers *.Cu *.Mask F.SilkS)
      (net 1 /3.3Vcc)
    )
    (pad 2 thru_hole circle (at 1.27 0 180) (size 1.397 1.397) (drill 0.8128)
      (layers *.Cu *.Mask F.SilkS)
      (net 14 N-0000018)
    )
    (model discret/verti_resistor.wrl
      (at (xyz 0 0 0))
      (scale (xyz 1 1 1))
      (rotate (xyz 0 0 0))
    )
  )

  (module R1 (layer F.Cu) (tedit 200000) (tstamp 569E00E0)
    (at 52.07 46.99)
    (descr "Resistance verticale")
    (tags R)
    (path /569CE3A3)
    (autoplace_cost90 10)
    (autoplace_cost180 10)
    (fp_text reference R3 (at -1.016 2.54) (layer F.SilkS)
      (effects (font (size 1.397 1.27) (thickness 0.2032)))
    )
    (fp_text value 10K (at -1.143 2.54) (layer F.SilkS) hide
      (effects (font (size 1.397 1.27) (thickness 0.2032)))
    )
    (fp_line (start -1.27 0) (end 1.27 0) (layer F.SilkS) (width 0.381))
    (fp_circle (center -1.27 0) (end -0.635 1.27) (layer F.SilkS) (width 0.381))
    (pad 1 thru_hole circle (at -1.27 0) (size 1.397 1.397) (drill 0.8128)
      (layers *.Cu *.Mask F.SilkS)
      (net 1 /3.3Vcc)
    )
    (pad 2 thru_hole circle (at 1.27 0) (size 1.397 1.397) (drill 0.8128)
      (layers *.Cu *.Mask F.SilkS)
      (net 15 N-000002)
    )
    (model discret/verti_resistor.wrl
      (at (xyz 0 0 0))
      (scale (xyz 1 1 1))
      (rotate (xyz 0 0 0))
    )
  )

  (module R1 (layer F.Cu) (tedit 200000) (tstamp 569E00E8)
    (at 87.122 41.148 180)
    (descr "Resistance verticale")
    (tags R)
    (path /569CE3B2)
    (autoplace_cost90 10)
    (autoplace_cost180 10)
    (fp_text reference R4 (at -1.016 2.54 180) (layer F.SilkS)
      (effects (font (size 1.397 1.27) (thickness 0.2032)))
    )
    (fp_text value 10K (at -1.143 2.54 180) (layer F.SilkS) hide
      (effects (font (size 1.397 1.27) (thickness 0.2032)))
    )
    (fp_line (start -1.27 0) (end 1.27 0) (layer F.SilkS) (width 0.381))
    (fp_circle (center -1.27 0) (end -0.635 1.27) (layer F.SilkS) (width 0.381))
    (pad 1 thru_hole circle (at -1.27 0 180) (size 1.397 1.397) (drill 0.8128)
      (layers *.Cu *.Mask F.SilkS)
      (net 8 /GND)
    )
    (pad 2 thru_hole circle (at 1.27 0 180) (size 1.397 1.397) (drill 0.8128)
      (layers *.Cu *.Mask F.SilkS)
      (net 17 N-000003)
    )
    (model discret/verti_resistor.wrl
      (at (xyz 0 0 0))
      (scale (xyz 1 1 1))
      (rotate (xyz 0 0 0))
    )
  )

  (module R1 (layer F.Cu) (tedit 200000) (tstamp 569E00F0)
    (at 73.66 52.832 180)
    (descr "Resistance verticale")
    (tags R)
    (path /569CE3C1)
    (autoplace_cost90 10)
    (autoplace_cost180 10)
    (fp_text reference R5 (at -1.016 2.54 180) (layer F.SilkS)
      (effects (font (size 1.397 1.27) (thickness 0.2032)))
    )
    (fp_text value 10K (at -1.143 2.54 180) (layer F.SilkS) hide
      (effects (font (size 1.397 1.27) (thickness 0.2032)))
    )
    (fp_line (start -1.27 0) (end 1.27 0) (layer F.SilkS) (width 0.381))
    (fp_circle (center -1.27 0) (end -0.635 1.27) (layer F.SilkS) (width 0.381))
    (pad 1 thru_hole circle (at -1.27 0 180) (size 1.397 1.397) (drill 0.8128)
      (layers *.Cu *.Mask F.SilkS)
      (net 18 N-000009)
    )
    (pad 2 thru_hole circle (at 1.27 0 180) (size 1.397 1.397) (drill 0.8128)
      (layers *.Cu *.Mask F.SilkS)
      (net 10 /RELAY)
    )
    (model discret/verti_resistor.wrl
      (at (xyz 0 0 0))
      (scale (xyz 1 1 1))
      (rotate (xyz 0 0 0))
    )
  )

  (module R1 (layer F.Cu) (tedit 200000) (tstamp 569E00F8)
    (at 73.66 48.514 180)
    (descr "Resistance verticale")
    (tags R)
    (path /569CE3D0)
    (autoplace_cost90 10)
    (autoplace_cost180 10)
    (fp_text reference R6 (at -1.016 2.54 180) (layer F.SilkS)
      (effects (font (size 1.397 1.27) (thickness 0.2032)))
    )
    (fp_text value 1K (at -1.143 2.54 180) (layer F.SilkS) hide
      (effects (font (size 1.397 1.27) (thickness 0.2032)))
    )
    (fp_line (start -1.27 0) (end 1.27 0) (layer F.SilkS) (width 0.381))
    (fp_circle (center -1.27 0) (end -0.635 1.27) (layer F.SilkS) (width 0.381))
    (pad 1 thru_hole circle (at -1.27 0 180) (size 1.397 1.397) (drill 0.8128)
      (layers *.Cu *.Mask F.SilkS)
      (net 9 /LED)
    )
    (pad 2 thru_hole circle (at 1.27 0 180) (size 1.397 1.397) (drill 0.8128)
      (layers *.Cu *.Mask F.SilkS)
      (net 16 N-0000025)
    )
    (model discret/verti_resistor.wrl
      (at (xyz 0 0 0))
      (scale (xyz 1 1 1))
      (rotate (xyz 0 0 0))
    )
  )

  (module R1 (layer F.Cu) (tedit 200000) (tstamp 569E0100)
    (at 68.834 52.832)
    (descr "Resistance verticale")
    (tags R)
    (path /569CE3DF)
    (autoplace_cost90 10)
    (autoplace_cost180 10)
    (fp_text reference R7 (at -1.016 2.54) (layer F.SilkS)
      (effects (font (size 1.397 1.27) (thickness 0.2032)))
    )
    (fp_text value 10K (at -1.143 2.54) (layer F.SilkS) hide
      (effects (font (size 1.397 1.27) (thickness 0.2032)))
    )
    (fp_line (start -1.27 0) (end 1.27 0) (layer F.SilkS) (width 0.381))
    (fp_circle (center -1.27 0) (end -0.635 1.27) (layer F.SilkS) (width 0.381))
    (pad 1 thru_hole circle (at -1.27 0) (size 1.397 1.397) (drill 0.8128)
      (layers *.Cu *.Mask F.SilkS)
      (net 1 /3.3Vcc)
    )
    (pad 2 thru_hole circle (at 1.27 0) (size 1.397 1.397) (drill 0.8128)
      (layers *.Cu *.Mask F.SilkS)
      (net 12 N-0000016)
    )
    (model discret/verti_resistor.wrl
      (at (xyz 0 0 0))
      (scale (xyz 1 1 1))
      (rotate (xyz 0 0 0))
    )
  )

  (module R1 (layer F.Cu) (tedit 200000) (tstamp 569E0108)
    (at 87.63 25.908 270)
    (descr "Resistance verticale")
    (tags R)
    (path /569CE3FD)
    (autoplace_cost90 10)
    (autoplace_cost180 10)
    (fp_text reference R1 (at -1.016 2.54 270) (layer F.SilkS)
      (effects (font (size 1.397 1.27) (thickness 0.2032)))
    )
    (fp_text value 10K (at -1.143 2.54 270) (layer F.SilkS) hide
      (effects (font (size 1.397 1.27) (thickness 0.2032)))
    )
    (fp_line (start -1.27 0) (end 1.27 0) (layer F.SilkS) (width 0.381))
    (fp_circle (center -1.27 0) (end -0.635 1.27) (layer F.SilkS) (width 0.381))
    (pad 1 thru_hole circle (at -1.27 0 270) (size 1.397 1.397) (drill 0.8128)
      (layers *.Cu *.Mask F.SilkS)
      (net 1 /3.3Vcc)
    )
    (pad 2 thru_hole circle (at 1.27 0 270) (size 1.397 1.397) (drill 0.8128)
      (layers *.Cu *.Mask F.SilkS)
      (net 13 N-0000017)
    )
    (model discret/verti_resistor.wrl
      (at (xyz 0 0 0))
      (scale (xyz 1 1 1))
      (rotate (xyz 0 0 0))
    )
  )

  (module Power_USB_hack (layer F.Cu) (tedit 569DFE8C) (tstamp 569E0114)
    (at 60.96 33.02)
    (path /569CE00E)
    (fp_text reference T1 (at 0.254 8.89) (layer F.SilkS)
      (effects (font (size 1 1) (thickness 0.15)))
    )
    (fp_text value "220 VAC 5 VDC" (at 0.127 -8.8265) (layer F.SilkS)
      (effects (font (size 1 1) (thickness 0.15)))
    )
    (fp_line (start -25.019 -10.033) (end 25.019 -10.033) (layer F.SilkS) (width 0.15))
    (fp_line (start 25.019 -10.033) (end 25.019 9.9695) (layer F.SilkS) (width 0.15))
    (fp_line (start 25.019 9.9695) (end -25.019 9.9695) (layer F.SilkS) (width 0.15))
    (fp_line (start -25.019 9.9695) (end -25.019 -10.033) (layer F.SilkS) (width 0.15))
    (pad 1 thru_hole circle (at -24.765 -3.937) (size 2.5 2.5) (drill 1)
      (layers *.Cu *.Mask F.SilkS)
      (net 5 /AC_N)
    )
    (pad 2 thru_hole circle (at -24.765 3.937) (size 2.5 2.5) (drill 1)
      (layers *.Cu *.Mask F.SilkS)
      (net 3 /AC_L)
    )
    (pad 4 thru_hole circle (at 24.765 -3.937) (size 2 2) (drill 1)
      (layers *.Cu *.Mask F.SilkS)
      (net 8 /GND)
    )
    (pad 3 thru_hole circle (at 24.765 3.937) (size 2 2) (drill 1)
      (layers *.Cu *.Mask F.SilkS)
      (net 2 /5Vcc)
    )
  )

  (module PIN_ARRAY-6X1 (layer F.Cu) (tedit 41402119) (tstamp 569E0123)
    (at 76.2 44.704 180)
    (descr "Connecteur 6 pins")
    (tags "CONN DEV")
    (path /569CE4EE)
    (fp_text reference P3 (at 0 -2.159 180) (layer F.SilkS)
      (effects (font (size 1.016 1.016) (thickness 0.2032)))
    )
    (fp_text value CONN_6 (at 0 2.159 180) (layer F.SilkS) hide
      (effects (font (size 1.016 0.889) (thickness 0.2032)))
    )
    (fp_line (start -7.62 1.27) (end -7.62 -1.27) (layer F.SilkS) (width 0.3048))
    (fp_line (start -7.62 -1.27) (end 7.62 -1.27) (layer F.SilkS) (width 0.3048))
    (fp_line (start 7.62 -1.27) (end 7.62 1.27) (layer F.SilkS) (width 0.3048))
    (fp_line (start 7.62 1.27) (end -7.62 1.27) (layer F.SilkS) (width 0.3048))
    (fp_line (start -5.08 1.27) (end -5.08 -1.27) (layer F.SilkS) (width 0.3048))
    (pad 1 thru_hole rect (at -6.35 0 180) (size 1.524 1.524) (drill 1.016)
      (layers *.Cu *.Mask F.SilkS)
    )
    (pad 2 thru_hole circle (at -3.81 0 180) (size 1.524 1.524) (drill 1.016)
      (layers *.Cu *.Mask F.SilkS)
      (net 7 /ESP_TX)
    )
    (pad 3 thru_hole circle (at -1.27 0 180) (size 1.524 1.524) (drill 1.016)
      (layers *.Cu *.Mask F.SilkS)
      (net 6 /ESP_RX)
    )
    (pad 4 thru_hole circle (at 1.27 0 180) (size 1.524 1.524) (drill 1.016)
      (layers *.Cu *.Mask F.SilkS)
    )
    (pad 5 thru_hole circle (at 3.81 0 180) (size 1.524 1.524) (drill 1.016)
      (layers *.Cu *.Mask F.SilkS)
    )
    (pad 6 thru_hole circle (at 6.35 0 180) (size 1.524 1.524) (drill 1.016)
      (layers *.Cu *.Mask F.SilkS)
      (net 8 /GND)
    )
    (model pin_array/pins_array_6x1.wrl
      (at (xyz 0 0 0))
      (scale (xyz 1 1 1))
      (rotate (xyz 0 0 0))
    )
  )

  (module LED-3MM (layer F.Cu) (tedit 50ADE848) (tstamp 569E013C)
    (at 68.072 48.768 180)
    (descr "LED 3mm - Lead pitch 100mil (2,54mm)")
    (tags "LED led 3mm 3MM 100mil 2,54mm")
    (path /569CE42A)
    (fp_text reference D1 (at 1.778 -2.794 180) (layer F.SilkS)
      (effects (font (size 0.762 0.762) (thickness 0.0889)))
    )
    (fp_text value LED (at 0 2.54 180) (layer F.SilkS)
      (effects (font (size 0.762 0.762) (thickness 0.0889)))
    )
    (fp_line (start 1.8288 1.27) (end 1.8288 -1.27) (layer F.SilkS) (width 0.254))
    (fp_arc (start 0.254 0) (end -1.27 0) (angle 39.8) (layer F.SilkS) (width 0.1524))
    (fp_arc (start 0.254 0) (end -0.88392 1.01092) (angle 41.6) (layer F.SilkS) (width 0.1524))
    (fp_arc (start 0.254 0) (end 1.4097 -0.9906) (angle 40.6) (layer F.SilkS) (width 0.1524))
    (fp_arc (start 0.254 0) (end 1.778 0) (angle 39.8) (layer F.SilkS) (width 0.1524))
    (fp_arc (start 0.254 0) (end 0.254 -1.524) (angle 54.4) (layer F.SilkS) (width 0.1524))
    (fp_arc (start 0.254 0) (end -0.9652 -0.9144) (angle 53.1) (layer F.SilkS) (width 0.1524))
    (fp_arc (start 0.254 0) (end 1.45542 0.93472) (angle 52.1) (layer F.SilkS) (width 0.1524))
    (fp_arc (start 0.254 0) (end 0.254 1.524) (angle 52.1) (layer F.SilkS) (width 0.1524))
    (fp_arc (start 0.254 0) (end -0.381 0) (angle 90) (layer F.SilkS) (width 0.1524))
    (fp_arc (start 0.254 0) (end -0.762 0) (angle 90) (layer F.SilkS) (width 0.1524))
    (fp_arc (start 0.254 0) (end 0.889 0) (angle 90) (layer F.SilkS) (width 0.1524))
    (fp_arc (start 0.254 0) (end 1.27 0) (angle 90) (layer F.SilkS) (width 0.1524))
    (fp_arc (start 0.254 0) (end 0.254 -2.032) (angle 50.1) (layer F.SilkS) (width 0.254))
    (fp_arc (start 0.254 0) (end -1.5367 -0.95504) (angle 61.9) (layer F.SilkS) (width 0.254))
    (fp_arc (start 0.254 0) (end 1.8034 1.31064) (angle 49.7) (layer F.SilkS) (width 0.254))
    (fp_arc (start 0.254 0) (end 0.254 2.032) (angle 60.2) (layer F.SilkS) (width 0.254))
    (fp_arc (start 0.254 0) (end -1.778 0) (angle 28.3) (layer F.SilkS) (width 0.254))
    (fp_arc (start 0.254 0) (end -1.47574 1.06426) (angle 31.6) (layer F.SilkS) (width 0.254))
    (pad 1 thru_hole circle (at -1.27 0 180) (size 1.6764 1.6764) (drill 0.8128)
      (layers *.Cu *.Mask F.SilkS)
      (net 16 N-0000025)
    )
    (pad 2 thru_hole circle (at 1.27 0 180) (size 1.6764 1.6764) (drill 0.8128)
      (layers *.Cu *.Mask F.SilkS)
      (net 8 /GND)
    )
    (model discret/leds/led3_vertical_verde.wrl
      (at (xyz 0 0 0))
      (scale (xyz 1 1 1))
      (rotate (xyz 0 0 0))
    )
  )

  (module bornier2 (layer F.Cu) (tedit 3EC0ED69) (tstamp 569E0166)
    (at 30.734 41.148 90)
    (descr "Bornier d'alimentation 2 pins")
    (tags DEV)
    (path /569CE2FA)
    (fp_text reference P1 (at 0 -5.08 90) (layer F.SilkS)
      (effects (font (size 1.524 1.524) (thickness 0.3048)))
    )
    (fp_text value CONN_2 (at 0 5.08 90) (layer F.SilkS)
      (effects (font (size 1.524 1.524) (thickness 0.3048)))
    )
    (fp_line (start 5.08 2.54) (end -5.08 2.54) (layer F.SilkS) (width 0.3048))
    (fp_line (start 5.08 3.81) (end 5.08 -3.81) (layer F.SilkS) (width 0.3048))
    (fp_line (start 5.08 -3.81) (end -5.08 -3.81) (layer F.SilkS) (width 0.3048))
    (fp_line (start -5.08 -3.81) (end -5.08 3.81) (layer F.SilkS) (width 0.3048))
    (fp_line (start -5.08 3.81) (end 5.08 3.81) (layer F.SilkS) (width 0.3048))
    (pad 1 thru_hole rect (at -2.54 0 90) (size 2.54 2.54) (drill 1.524)
      (layers *.Cu *.Mask F.SilkS)
      (net 3 /AC_L)
    )
    (pad 2 thru_hole circle (at 2.54 0 90) (size 2.54 2.54) (drill 1.524)
      (layers *.Cu *.Mask F.SilkS)
      (net 5 /AC_N)
    )
    (model device/bornier_2.wrl
      (at (xyz 0 0 0))
      (scale (xyz 1 1 1))
      (rotate (xyz 0 0 0))
    )
  )

  (module bornier2 (layer F.Cu) (tedit 3EC0ED69) (tstamp 569E0171)
    (at 119.126 41.148 270)
    (descr "Bornier d'alimentation 2 pins")
    (tags DEV)
    (path /569CE4CF)
    (fp_text reference P2 (at 0 -5.08 270) (layer F.SilkS)
      (effects (font (size 1.524 1.524) (thickness 0.3048)))
    )
    (fp_text value CONN_2 (at 0 5.08 270) (layer F.SilkS)
      (effects (font (size 1.524 1.524) (thickness 0.3048)))
    )
    (fp_line (start 5.08 2.54) (end -5.08 2.54) (layer F.SilkS) (width 0.3048))
    (fp_line (start 5.08 3.81) (end 5.08 -3.81) (layer F.SilkS) (width 0.3048))
    (fp_line (start 5.08 -3.81) (end -5.08 -3.81) (layer F.SilkS) (width 0.3048))
    (fp_line (start -5.08 -3.81) (end -5.08 3.81) (layer F.SilkS) (width 0.3048))
    (fp_line (start -5.08 3.81) (end 5.08 3.81) (layer F.SilkS) (width 0.3048))
    (pad 1 thru_hole rect (at -2.54 0 270) (size 2.54 2.54) (drill 1.524)
      (layers *.Cu *.Mask F.SilkS)
      (net 4 /AC_Lout)
    )
    (pad 2 thru_hole circle (at 2.54 0 270) (size 2.54 2.54) (drill 1.524)
      (layers *.Cu *.Mask F.SilkS)
      (net 5 /AC_N)
    )
    (model device/bornier_2.wrl
      (at (xyz 0 0 0))
      (scale (xyz 1 1 1))
      (rotate (xyz 0 0 0))
    )
  )

  (module ESP8266-ESP-12E (layer F.Cu) (tedit 569E05E1) (tstamp 569E0684)
    (at 102.87 32.766 270)
    (descr "ESP8266 ESP-03 wifi module -- Phillip Pearson")
    (path /569CDF5C)
    (fp_text reference U2 (at 2.0955 7.239 270) (layer F.SilkS)
      (effects (font (size 1 1) (thickness 0.15)))
    )
    (fp_text value ESP866_ESP-12E (at 1.778 -12.7635 270) (layer F.SilkS)
      (effects (font (size 1 1) (thickness 0.15)))
    )
    (fp_line (start -8.001 -11.811) (end 8.001 -11.811) (layer F.SilkS) (width 0.15))
    (fp_line (start 8.001 -11.811) (end 8.001 12.192) (layer F.SilkS) (width 0.15))
    (fp_line (start 8.001 12.192) (end 7.5565 12.192) (layer F.SilkS) (width 0.15))
    (fp_line (start -8.001 12.192) (end -8.001 -11.811) (layer F.SilkS) (width 0.15))
    (fp_line (start 7.5565 12.192) (end -8.001 12.192) (layer F.SilkS) (width 0.15))
    (pad 7 smd rect (at -8.505 8.1225 270) (size 2 1)
      (layers F.Cu F.Paste F.Mask)
    )
    (pad 6 smd rect (at -8.4415 6.186 270) (size 2 1)
      (layers F.Cu F.Paste F.Mask)
    )
    (pad 5 smd rect (at -8.4415 4.186 270) (size 2 1)
      (layers F.Cu F.Paste F.Mask)
    )
    (pad 4 smd rect (at -8.4415 2.186 270) (size 2 1)
      (layers F.Cu F.Paste F.Mask)
    )
    (pad 3 smd rect (at -8.4415 0.186 270) (size 2 1)
      (layers F.Cu F.Paste F.Mask)
      (net 12 N-0000016)
    )
    (pad 2 smd rect (at -8.4415 -1.814 270) (size 2 1)
      (layers F.Cu F.Paste F.Mask)
    )
    (pad 1 smd rect (at -8.4415 -3.814 270) (size 2 1)
      (layers F.Cu F.Paste F.Mask)
      (net 13 N-0000017)
    )
    (pad 16 smd rect (at 8.4415 8.186 270) (size 2 1)
      (layers F.Cu F.Paste F.Mask)
      (net 17 N-000003)
    )
    (pad 17 smd rect (at 8.4455 6.1595 270) (size 2 1)
      (layers F.Cu F.Paste F.Mask)
      (net 15 N-000002)
    )
    (pad 18 smd rect (at 8.4415 4.186 270) (size 2 1)
      (layers F.Cu F.Paste F.Mask)
      (net 14 N-0000018)
    )
    (pad 19 smd rect (at 8.4415 2.186 270) (size 2 1)
      (layers F.Cu F.Paste F.Mask)
      (net 9 /LED)
    )
    (pad 20 smd rect (at 8.4415 0.186 270) (size 2 1)
      (layers F.Cu F.Paste F.Mask)
      (net 10 /RELAY)
    )
    (pad 21 smd rect (at 8.4415 -1.814 270) (size 2 1)
      (layers F.Cu F.Paste F.Mask)
      (net 6 /ESP_RX)
    )
    (pad 22 smd rect (at 8.4415 -3.814 270) (size 2 1)
      (layers F.Cu F.Paste F.Mask)
      (net 7 /ESP_TX)
    )
    (pad 8 smd rect (at -8.509 10.16 270) (size 2 1)
      (layers F.Cu F.Paste F.Mask)
      (net 1 /3.3Vcc)
    )
    (pad 9 smd rect (at -5.0165 12.573) (size 2 1)
      (layers F.Cu F.Paste F.Mask)
    )
    (pad 10 smd rect (at -2.9845 12.573) (size 2 1)
      (layers F.Cu F.Paste F.Mask)
    )
    (pad 11 smd rect (at -0.9525 12.573) (size 2 1)
      (layers F.Cu F.Paste F.Mask)
    )
    (pad 12 smd rect (at 1.0795 12.573) (size 2 1)
      (layers F.Cu F.Paste F.Mask)
    )
    (pad 13 smd rect (at 3.1115 12.573) (size 2 1)
      (layers F.Cu F.Paste F.Mask)
    )
    (pad 14 smd rect (at 5.1435 12.573) (size 2 1)
      (layers F.Cu F.Paste F.Mask)
    )
    (pad 15 smd rect (at 8.4455 10.2235 270) (size 2 1)
      (layers F.Cu F.Paste F.Mask)
      (net 8 /GND)
    )
  )

  (gr_text pgr (at 36.83 54.102) (layer F.Cu)
    (effects (font (size 1.5 1.5) (thickness 0.3)))
  )
  (gr_text rst (at 53.594 54.102) (layer F.Cu)
    (effects (font (size 1.5 1.5) (thickness 0.3)))
  )
  (gr_line (start 122.428 59.69) (end 122.428 22.86) (angle 90) (layer Edge.Cuts) (width 0.1))
  (gr_line (start 27.432 59.69) (end 122.428 59.69) (angle 90) (layer Edge.Cuts) (width 0.1))
  (gr_line (start 27.432 22.86) (end 27.432 59.69) (angle 90) (layer Edge.Cuts) (width 0.1))
  (gr_line (start 27.432 22.86) (end 122.428 22.86) (angle 90) (layer Edge.Cuts) (width 0.1))

  (segment (start 87.63 24.638) (end 88.138 24.638) (width 1.5) (layer F.Cu) (net 1))
  (segment (start 88.519 24.257) (end 92.71 24.257) (width 1.5) (layer F.Cu) (net 1) (tstamp 569E2446))
  (segment (start 88.138 24.638) (end 88.519 24.257) (width 1.5) (layer F.Cu) (net 1) (tstamp 569E2444))
  (segment (start 67.564 52.832) (end 67.31 52.832) (width 1.5) (layer F.Cu) (net 1))
  (segment (start 54.61 51.816) (end 53.086 50.292) (width 1.5) (layer F.Cu) (net 1) (tstamp 569E226B))
  (segment (start 66.294 51.816) (end 54.61 51.816) (width 1.5) (layer F.Cu) (net 1) (tstamp 569E2266))
  (segment (start 67.31 52.832) (end 66.294 51.816) (width 1.5) (layer F.Cu) (net 1) (tstamp 569E2264))
  (segment (start 50.8 46.99) (end 50.8 47.498) (width 1.5) (layer B.Cu) (net 1))
  (segment (start 53.086 49.784) (end 53.086 50.292) (width 1.5) (layer B.Cu) (net 1) (tstamp 569E224D))
  (segment (start 50.8 47.498) (end 53.086 49.784) (width 1.5) (layer B.Cu) (net 1) (tstamp 569E224B))
  (segment (start 50.8 46.99) (end 50.8 45.72) (width 1.5) (layer B.Cu) (net 1))
  (segment (start 56.134 44.196) (end 57.658 45.72) (width 1.5) (layer B.Cu) (net 1) (tstamp 569E220D))
  (segment (start 52.324 44.196) (end 56.134 44.196) (width 1.5) (layer B.Cu) (net 1) (tstamp 569E220B))
  (segment (start 50.8 45.72) (end 52.324 44.196) (width 1.5) (layer B.Cu) (net 1) (tstamp 569E220A))
  (segment (start 57.658 45.72) (end 57.658 37.338) (width 1.5) (layer B.Cu) (net 1))
  (segment (start 57.658 37.338) (end 70.358 24.638) (width 1.5) (layer B.Cu) (net 1) (tstamp 569E21B4))
  (segment (start 70.358 24.638) (end 87.63 24.638) (width 1.5) (layer B.Cu) (net 1) (tstamp 569E21B9))
  (segment (start 87.122 45.974) (end 90.678 45.974) (width 1.5) (layer B.Cu) (net 2))
  (segment (start 90.678 45.974) (end 87.122 45.974) (width 1.5) (layer F.Cu) (net 2) (tstamp 569E29BF))
  (segment (start 91.44 46.736) (end 90.678 45.974) (width 1.5) (layer F.Cu) (net 2) (tstamp 569E29BE))
  (via (at 91.44 46.736) (size 1.5) (drill 0.8) (layers F.Cu B.Cu) (net 2))
  (segment (start 90.678 45.974) (end 91.44 46.736) (width 1.5) (layer B.Cu) (net 2) (tstamp 569E29B9))
  (segment (start 87.122 45.974) (end 83.312 42.164) (width 1.5) (layer F.Cu) (net 2) (tstamp 569E29C0))
  (segment (start 83.312 42.164) (end 83.312 39.37) (width 1.5) (layer F.Cu) (net 2) (tstamp 569E29C3))
  (segment (start 83.312 39.37) (end 85.725 36.957) (width 1.5) (layer F.Cu) (net 2) (tstamp 569E29C5))
  (segment (start 62.738 45.72) (end 62.738 40.132) (width 1.5) (layer F.Cu) (net 2))
  (segment (start 62.738 40.132) (end 65.913 36.957) (width 1.5) (layer F.Cu) (net 2) (tstamp 569E2567))
  (segment (start 65.913 36.957) (end 85.725 36.957) (width 1.5) (layer F.Cu) (net 2) (tstamp 569E256B))
  (segment (start 107.442 45.974) (end 107.442 53.467) (width 2) (layer B.Cu) (net 3))
  (segment (start 30.734 43.688) (end 30.734 53.848) (width 3) (layer B.Cu) (net 3) (status 10))
  (segment (start 107.442 55.118) (end 107.442 53.467) (width 3) (layer B.Cu) (net 3) (tstamp 569E1274) (status 20))
  (segment (start 104.902 57.658) (end 107.442 55.118) (width 3) (layer B.Cu) (net 3) (tstamp 569E126F))
  (segment (start 34.544 57.658) (end 104.902 57.658) (width 3) (layer B.Cu) (net 3) (tstamp 569E1268))
  (segment (start 30.734 53.848) (end 34.544 57.658) (width 3) (layer B.Cu) (net 3) (tstamp 569E1265))
  (segment (start 30.734 43.688) (end 33.528 43.688) (width 3) (layer B.Cu) (net 3) (status 10))
  (segment (start 36.195 41.021) (end 36.195 36.957) (width 3) (layer B.Cu) (net 3) (tstamp 569E0F6C) (status 20))
  (segment (start 33.528 43.688) (end 36.195 41.021) (width 3) (layer B.Cu) (net 3) (tstamp 569E0F6A))
  (segment (start 112.522 45.974) (end 112.522 53.467) (width 2) (layer B.Cu) (net 4))
  (segment (start 119.126 38.608) (end 118.872 38.608) (width 3) (layer B.Cu) (net 4))
  (segment (start 118.872 38.608) (end 112.522 44.958) (width 3) (layer B.Cu) (net 4) (tstamp 569E18CD))
  (segment (start 112.522 44.958) (end 112.522 45.974) (width 3) (layer B.Cu) (net 4) (tstamp 569E18D0))
  (segment (start 34.798 41.148) (end 32.258 38.608) (width 3) (layer F.Cu) (net 5))
  (segment (start 32.258 38.608) (end 30.734 38.608) (width 3) (layer F.Cu) (net 5) (tstamp 569E2B63))
  (segment (start 30.734 38.608) (end 30.988 38.354) (width 3) (layer F.Cu) (net 5) (tstamp 569E2B6A))
  (segment (start 30.988 38.354) (end 30.988 34.29) (width 3) (layer F.Cu) (net 5) (tstamp 569E2B6B))
  (segment (start 30.988 34.29) (end 36.195 29.083) (width 3) (layer F.Cu) (net 5) (tstamp 569E2B6D))
  (segment (start 30.734 38.608) (end 30.734 34.544) (width 3) (layer B.Cu) (net 5))
  (segment (start 30.734 34.544) (end 36.195 29.083) (width 3) (layer B.Cu) (net 5) (tstamp 569E2B5B))
  (segment (start 119.126 54.864) (end 119.126 49.022) (width 3) (layer F.Cu) (net 5))
  (segment (start 119.126 49.022) (end 119.126 43.688) (width 3) (layer B.Cu) (net 5) (tstamp 569E125C) (status 20))
  (via (at 119.126 49.022) (size 3) (drill 1.5) (layers F.Cu B.Cu) (net 5))
  (segment (start 30.734 38.608) (end 32.258 38.608) (width 3) (layer F.Cu) (net 5) (tstamp 569E1226) (status 10))
  (segment (start 116.332 57.658) (end 119.126 54.864) (width 3) (layer F.Cu) (net 5) (tstamp 569E124A))
  (segment (start 34.544 57.658) (end 116.332 57.658) (width 3) (layer F.Cu) (net 5) (tstamp 569E1241))
  (segment (start 31.242 54.356) (end 34.544 57.658) (width 3) (layer F.Cu) (net 5) (tstamp 569E123E))
  (segment (start 31.242 49.784) (end 31.242 54.356) (width 3) (layer F.Cu) (net 5) (tstamp 569E123C))
  (segment (start 34.798 46.228) (end 31.242 49.784) (width 3) (layer F.Cu) (net 5) (tstamp 569E1238))
  (segment (start 34.798 41.148) (end 34.798 46.228) (width 3) (layer F.Cu) (net 5) (tstamp 569E1231))
  (segment (start 77.47 39.624) (end 77.47 44.704) (width 1) (layer B.Cu) (net 6))
  (segment (start 103.886 38.862) (end 98.552 33.528) (width 1) (layer B.Cu) (net 6))
  (segment (start 74.422 36.576) (end 77.47 39.624) (width 1) (layer B.Cu) (net 6) (tstamp 569E27EA))
  (segment (start 74.422 33.02) (end 74.422 36.576) (width 1) (layer B.Cu) (net 6) (tstamp 569E27E7))
  (segment (start 75.692 31.75) (end 74.422 33.02) (width 1) (layer B.Cu) (net 6) (tstamp 569E27DC))
  (segment (start 96.774 31.75) (end 75.692 31.75) (width 1) (layer B.Cu) (net 6) (tstamp 569E27B8))
  (segment (start 98.552 33.528) (end 96.774 31.75) (width 1) (layer B.Cu) (net 6) (tstamp 569E27B7))
  (via (at 104.684 41.2075) (size 1.5) (drill 0.8) (layers F.Cu B.Cu) (net 6))
  (segment (start 104.648 39.624) (end 103.886 38.862) (width 1) (layer B.Cu) (net 6) (tstamp 569E26D7))
  (segment (start 104.648 41.1715) (end 104.648 39.624) (width 1) (layer B.Cu) (net 6) (tstamp 569E26CA))
  (segment (start 104.648 41.1715) (end 104.684 41.2075) (width 1) (layer B.Cu) (net 6) (tstamp 569E26C9))
  (segment (start 106.684 41.2075) (end 106.684 38.866) (width 1) (layer F.Cu) (net 7))
  (segment (start 80.01 42.164) (end 80.01 44.704) (width 1) (layer B.Cu) (net 7) (tstamp 569E282A))
  (segment (start 83.058 39.116) (end 80.01 42.164) (width 1) (layer B.Cu) (net 7) (tstamp 569E2829))
  (segment (start 92.202 39.116) (end 83.058 39.116) (width 1) (layer B.Cu) (net 7) (tstamp 569E2820))
  (segment (start 93.218 38.1) (end 92.202 39.116) (width 1) (layer B.Cu) (net 7) (tstamp 569E281F))
  (via (at 93.218 38.1) (size 1.5) (drill 0.8) (layers F.Cu B.Cu) (net 7))
  (segment (start 105.918 38.1) (end 93.218 38.1) (width 1) (layer F.Cu) (net 7) (tstamp 569E2819))
  (segment (start 106.684 38.866) (end 105.918 38.1) (width 1) (layer F.Cu) (net 7) (tstamp 569E2817))
  (segment (start 56.388 54.356) (end 64.008 54.356) (width 1.5) (layer B.Cu) (net 8))
  (segment (start 39.624 54.102) (end 47.244 54.102) (width 1.5) (layer B.Cu) (net 8))
  (segment (start 88.392 41.148) (end 88.392 40.386) (width 1.5) (layer F.Cu) (net 8))
  (segment (start 85.725 33.147) (end 85.725 29.083) (width 1.5) (layer F.Cu) (net 8) (tstamp 569E2534))
  (segment (start 88.138 35.56) (end 85.725 33.147) (width 1.5) (layer F.Cu) (net 8) (tstamp 569E252F))
  (segment (start 88.138 40.132) (end 88.138 35.56) (width 1.5) (layer F.Cu) (net 8) (tstamp 569E252C))
  (segment (start 88.392 40.386) (end 88.138 40.132) (width 1.5) (layer F.Cu) (net 8) (tstamp 569E2528))
  (segment (start 60.198 45.72) (end 60.198 38.862) (width 1.5) (layer B.Cu) (net 8))
  (segment (start 83.82 27.178) (end 85.725 29.083) (width 1.5) (layer B.Cu) (net 8) (tstamp 569E22C1))
  (segment (start 71.882 27.178) (end 83.82 27.178) (width 1.5) (layer B.Cu) (net 8) (tstamp 569E22C0))
  (segment (start 60.198 38.862) (end 71.882 27.178) (width 1.5) (layer B.Cu) (net 8) (tstamp 569E22BE))
  (segment (start 88.392 41.148) (end 92.583 41.148) (width 1.5) (layer F.Cu) (net 8))
  (segment (start 92.583 41.148) (end 92.6465 41.2115) (width 1.5) (layer F.Cu) (net 8) (tstamp 569E200A))
  (segment (start 64.008 54.356) (end 65.532 54.356) (width 1.5) (layer F.Cu) (net 8))
  (segment (start 65.532 54.356) (end 66.04 54.864) (width 1.5) (layer F.Cu) (net 8) (tstamp 569E1F92))
  (segment (start 66.04 54.864) (end 77.724 54.864) (width 1.5) (layer F.Cu) (net 8) (tstamp 569E1F93))
  (segment (start 77.724 54.864) (end 78.74 53.848) (width 1.5) (layer F.Cu) (net 8) (tstamp 569E1F97))
  (segment (start 78.74 53.848) (end 78.74 50.292) (width 1.5) (layer F.Cu) (net 8) (tstamp 569E1F98))
  (segment (start 60.198 45.72) (end 60.198 43.688) (width 1.5) (layer B.Cu) (net 8))
  (segment (start 68.326 43.18) (end 69.85 44.704) (width 1.5) (layer B.Cu) (net 8) (tstamp 569E1F2B))
  (segment (start 60.706 43.18) (end 68.326 43.18) (width 1.5) (layer B.Cu) (net 8) (tstamp 569E1F28))
  (segment (start 60.198 43.688) (end 60.706 43.18) (width 1.5) (layer B.Cu) (net 8) (tstamp 569E1F27))
  (segment (start 66.802 48.768) (end 66.802 48.26) (width 1) (layer B.Cu) (net 8))
  (segment (start 69.85 45.212) (end 69.85 44.704) (width 1.5) (layer B.Cu) (net 8) (tstamp 569E1F19))
  (segment (start 66.802 48.26) (end 69.85 45.212) (width 1.5) (layer B.Cu) (net 8) (tstamp 569E1F17))
  (segment (start 64.008 54.356) (end 64.008 53.086) (width 1.5) (layer B.Cu) (net 8))
  (segment (start 64.008 53.086) (end 66.802 50.292) (width 1.5) (layer B.Cu) (net 8) (tstamp 569E1F0E))
  (segment (start 66.802 50.292) (end 66.802 48.768) (width 1.5) (layer B.Cu) (net 8) (tstamp 569E1F12))
  (segment (start 47.244 54.102) (end 48.514 54.102) (width 1.5) (layer B.Cu) (net 8))
  (segment (start 55.626 55.118) (end 56.388 54.356) (width 1.5) (layer B.Cu) (net 8) (tstamp 569E1F02))
  (segment (start 49.53 55.118) (end 55.626 55.118) (width 1.5) (layer B.Cu) (net 8) (tstamp 569E1EFE))
  (segment (start 48.514 54.102) (end 49.53 55.118) (width 1.5) (layer B.Cu) (net 8) (tstamp 569E1EF7))
  (segment (start 74.93 48.514) (end 75.692 48.514) (width 1) (layer B.Cu) (net 9))
  (segment (start 100.6435 41.2075) (end 100.684 41.2075) (width 1) (layer F.Cu) (net 9) (tstamp 569E2636))
  (segment (start 100.584 41.148) (end 100.6435 41.2075) (width 1) (layer F.Cu) (net 9) (tstamp 569E2635))
  (via (at 100.584 41.148) (size 1.5) (drill 0.8) (layers F.Cu B.Cu) (net 9))
  (segment (start 100.584 42.418) (end 100.584 41.148) (width 1) (layer B.Cu) (net 9) (tstamp 569E2631))
  (segment (start 99.568 43.434) (end 100.584 42.418) (width 1) (layer B.Cu) (net 9) (tstamp 569E2627))
  (segment (start 85.598 43.434) (end 99.568 43.434) (width 1) (layer B.Cu) (net 9) (tstamp 569E2624))
  (segment (start 84.836 44.196) (end 85.598 43.434) (width 1) (layer B.Cu) (net 9) (tstamp 569E2622))
  (segment (start 84.836 45.72) (end 84.836 44.196) (width 1) (layer B.Cu) (net 9) (tstamp 569E261E))
  (segment (start 83.82 46.736) (end 84.836 45.72) (width 1) (layer B.Cu) (net 9) (tstamp 569E2612))
  (segment (start 77.47 46.736) (end 83.82 46.736) (width 1) (layer B.Cu) (net 9) (tstamp 569E2610))
  (segment (start 75.692 48.514) (end 77.47 46.736) (width 1) (layer B.Cu) (net 9) (tstamp 569E260F))
  (segment (start 72.39 52.832) (end 72.39 52.07) (width 1) (layer B.Cu) (net 10))
  (segment (start 102.6755 41.2075) (end 102.684 41.2075) (width 1) (layer F.Cu) (net 10) (tstamp 569E25F2))
  (segment (start 102.616 41.148) (end 102.6755 41.2075) (width 1) (layer F.Cu) (net 10) (tstamp 569E25F1))
  (via (at 102.616 41.148) (size 1.5) (drill 0.8) (layers F.Cu B.Cu) (net 10))
  (segment (start 102.616 42.418) (end 102.616 41.148) (width 1) (layer B.Cu) (net 10) (tstamp 569E25EA))
  (segment (start 104.902 44.704) (end 102.616 42.418) (width 1) (layer B.Cu) (net 10) (tstamp 569E25E5))
  (segment (start 104.902 48.006) (end 104.902 44.704) (width 1) (layer B.Cu) (net 10) (tstamp 569E25E3))
  (segment (start 103.632 49.276) (end 104.902 48.006) (width 1) (layer B.Cu) (net 10) (tstamp 569E25CE))
  (segment (start 85.09 49.276) (end 103.632 49.276) (width 1) (layer B.Cu) (net 10) (tstamp 569E25C9))
  (segment (start 84.074 48.26) (end 85.09 49.276) (width 1) (layer B.Cu) (net 10) (tstamp 569E25C7))
  (segment (start 78.232 48.26) (end 84.074 48.26) (width 1) (layer B.Cu) (net 10) (tstamp 569E25C5))
  (segment (start 75.946 50.546) (end 78.232 48.26) (width 1) (layer B.Cu) (net 10) (tstamp 569E25C2))
  (segment (start 73.914 50.546) (end 75.946 50.546) (width 1) (layer B.Cu) (net 10) (tstamp 569E25C0))
  (segment (start 72.39 52.07) (end 73.914 50.546) (width 1) (layer B.Cu) (net 10) (tstamp 569E25BF))
  (segment (start 81.28 52.832) (end 86.487 52.832) (width 1.5) (layer B.Cu) (net 11) (status 30))
  (segment (start 86.487 52.832) (end 87.122 53.467) (width 1.5) (layer B.Cu) (net 11) (tstamp 569E1397) (status 30))
  (segment (start 107.188 32.512) (end 107.188 31.75) (width 1) (layer B.Cu) (net 12))
  (segment (start 107.188 31.75) (end 102.616 27.178) (width 1) (layer B.Cu) (net 12) (tstamp 569E2425))
  (segment (start 102.684 24.198) (end 102.684 24.3245) (width 1) (layer F.Cu) (net 12) (tstamp 569E2433))
  (segment (start 102.616 24.13) (end 102.684 24.198) (width 1) (layer F.Cu) (net 12) (tstamp 569E2432))
  (via (at 102.616 24.13) (size 1.5) (drill 0.8) (layers F.Cu B.Cu) (net 12))
  (segment (start 102.616 27.178) (end 102.616 24.13) (width 1) (layer B.Cu) (net 12) (tstamp 569E2426))
  (segment (start 70.104 53.34) (end 71.628 54.864) (width 1) (layer B.Cu) (net 12) (tstamp 569E2035))
  (segment (start 103.378 27.94) (end 105.029 29.591) (width 1) (layer B.Cu) (net 12) (tstamp 569E20A1))
  (segment (start 105.029 29.591) (end 107.188 31.75) (width 1) (layer B.Cu) (net 12) (tstamp 569E2419))
  (segment (start 107.188 32.512) (end 107.188 40.132) (width 1) (layer B.Cu) (net 12) (tstamp 569E2423))
  (segment (start 107.188 40.132) (end 107.95 40.894) (width 1) (layer B.Cu) (net 12) (tstamp 569E20A5))
  (segment (start 70.104 53.34) (end 70.104 52.832) (width 1) (layer B.Cu) (net 12))
  (segment (start 108.966 41.91) (end 107.95 40.894) (width 1) (layer B.Cu) (net 12) (tstamp 569E206E))
  (segment (start 109.728 41.91) (end 108.966 41.91) (width 1) (layer B.Cu) (net 12) (tstamp 569E206D))
  (segment (start 109.982 42.164) (end 109.728 41.91) (width 1) (layer B.Cu) (net 12) (tstamp 569E206C))
  (via (at 109.982 42.164) (size 1.5) (drill 0.8) (layers F.Cu B.Cu) (net 12))
  (segment (start 109.982 48.768) (end 109.982 42.164) (width 1) (layer F.Cu) (net 12) (tstamp 569E205F))
  (segment (start 108.204 50.546) (end 109.982 48.768) (width 1) (layer F.Cu) (net 12) (tstamp 569E205D))
  (segment (start 86.106 50.546) (end 108.204 50.546) (width 1) (layer F.Cu) (net 12) (tstamp 569E2049))
  (segment (start 84.074 52.578) (end 86.106 50.546) (width 1) (layer F.Cu) (net 12) (tstamp 569E2047))
  (segment (start 84.074 54.102) (end 84.074 52.578) (width 1) (layer F.Cu) (net 12) (tstamp 569E2046))
  (segment (start 83.312 54.864) (end 84.074 54.102) (width 1) (layer F.Cu) (net 12) (tstamp 569E2045))
  (via (at 83.312 54.864) (size 1.5) (drill 0.8) (layers F.Cu B.Cu) (net 12))
  (segment (start 71.628 54.864) (end 83.312 54.864) (width 1) (layer B.Cu) (net 12) (tstamp 569E2037))
  (segment (start 56.388 49.276) (end 64.008 49.276) (width 1.5) (layer B.Cu) (net 13))
  (segment (start 64.008 49.276) (end 64.008 48.26) (width 1) (layer F.Cu) (net 13))
  (segment (start 87.122 26.67) (end 87.63 27.178) (width 1) (layer F.Cu) (net 13) (tstamp 569E2943))
  (segment (start 76.708 26.67) (end 87.122 26.67) (width 1) (layer F.Cu) (net 13) (tstamp 569E2941))
  (segment (start 73.406 29.972) (end 76.708 26.67) (width 1) (layer F.Cu) (net 13) (tstamp 569E2940))
  (via (at 73.406 29.972) (size 1.5) (drill 0.8) (layers F.Cu B.Cu) (net 13))
  (segment (start 67.31 36.068) (end 73.406 29.972) (width 1) (layer B.Cu) (net 13) (tstamp 569E293A))
  (segment (start 67.31 39.878) (end 67.31 36.068) (width 1) (layer B.Cu) (net 13) (tstamp 569E2939))
  (segment (start 67.056 40.132) (end 67.31 39.878) (width 1) (layer B.Cu) (net 13) (tstamp 569E2938))
  (via (at 67.056 40.132) (size 1.5) (drill 0.8) (layers F.Cu B.Cu) (net 13))
  (segment (start 67.056 45.212) (end 67.056 40.132) (width 1) (layer F.Cu) (net 13) (tstamp 569E2932))
  (segment (start 64.008 48.26) (end 67.056 45.212) (width 1) (layer F.Cu) (net 13) (tstamp 569E2931))
  (segment (start 87.63 27.178) (end 87.864002 27.178) (width 1) (layer F.Cu) (net 13))
  (segment (start 87.864002 27.178) (end 88.880002 26.162) (width 1) (layer F.Cu) (net 13) (tstamp 569E2453))
  (segment (start 88.880002 26.162) (end 91.694 26.162) (width 1) (layer F.Cu) (net 13) (tstamp 569E2457))
  (segment (start 91.694 26.162) (end 92.964 27.432) (width 1) (layer F.Cu) (net 13) (tstamp 569E245C))
  (segment (start 92.964 27.432) (end 105.156 27.432) (width 1) (layer F.Cu) (net 13) (tstamp 569E2460))
  (segment (start 105.156 27.432) (end 106.684 25.904) (width 1) (layer F.Cu) (net 13) (tstamp 569E2463))
  (segment (start 87.864002 27.178) (end 88.880002 26.162) (width 1) (layer F.Cu) (net 13) (tstamp 569E23C7))
  (segment (start 106.684 25.904) (end 106.684 24.3245) (width 1) (layer F.Cu) (net 13) (tstamp 569E23EC))
  (segment (start 39.624 49.022) (end 47.244 49.022) (width 1.5) (layer B.Cu) (net 14))
  (segment (start 54.102 33.274) (end 48.26 33.274) (width 1) (layer F.Cu) (net 14))
  (segment (start 39.624 41.91) (end 39.624 49.022) (width 1) (layer F.Cu) (net 14) (tstamp 569E289F))
  (segment (start 48.26 33.274) (end 39.624 41.91) (width 1) (layer F.Cu) (net 14) (tstamp 569E289D))
  (segment (start 98.806 37.846) (end 98.806 36.83) (width 1) (layer B.Cu) (net 14))
  (segment (start 77.47 33.274) (end 54.102 33.274) (width 1) (layer F.Cu) (net 14) (tstamp 569E279C))
  (segment (start 54.102 33.274) (end 53.848 33.274) (width 1) (layer F.Cu) (net 14) (tstamp 569E289B))
  (via (at 77.47 33.274) (size 1.5) (drill 0.8) (layers F.Cu B.Cu) (net 14))
  (segment (start 95.25 33.274) (end 77.47 33.274) (width 1) (layer B.Cu) (net 14) (tstamp 569E278B))
  (segment (start 98.806 36.83) (end 95.25 33.274) (width 1) (layer B.Cu) (net 14) (tstamp 569E278A))
  (via (at 98.684 41.2075) (size 1.5) (drill 0.8) (layers F.Cu B.Cu) (net 14))
  (segment (start 98.806 37.338) (end 98.806 37.846) (width 1) (layer B.Cu) (net 14) (tstamp 569E270C))
  (segment (start 98.806 37.846) (end 98.806 41.0855) (width 1) (layer B.Cu) (net 14) (tstamp 569E2788))
  (segment (start 98.806 41.0855) (end 98.684 41.2075) (width 1) (layer B.Cu) (net 14) (tstamp 569E270B))
  (segment (start 47.244 49.022) (end 49.276 49.022) (width 1.5) (layer B.Cu) (net 14))
  (segment (start 49.276 49.022) (end 50.546 50.292) (width 1.5) (layer B.Cu) (net 14) (tstamp 569E2247))
  (segment (start 57.658 34.798) (end 57.15 34.798) (width 1) (layer F.Cu) (net 15))
  (segment (start 53.34 38.608) (end 53.34 46.99) (width 1) (layer F.Cu) (net 15) (tstamp 569E28A7))
  (segment (start 57.15 34.798) (end 53.34 38.608) (width 1) (layer F.Cu) (net 15) (tstamp 569E28A6))
  (segment (start 96.774 38.1) (end 96.774 37.846) (width 1) (layer B.Cu) (net 15))
  (segment (start 79.756 34.798) (end 57.658 34.798) (width 1) (layer F.Cu) (net 15) (tstamp 569E277B))
  (via (at 79.756 34.798) (size 1.5) (drill 0.8) (layers F.Cu B.Cu) (net 15))
  (segment (start 93.726 34.798) (end 79.756 34.798) (width 1) (layer B.Cu) (net 15) (tstamp 569E276B))
  (segment (start 96.774 37.846) (end 93.726 34.798) (width 1) (layer B.Cu) (net 15) (tstamp 569E276A))
  (via (at 96.7105 41.2115) (size 1.5) (drill 0.8) (layers F.Cu B.Cu) (net 15))
  (segment (start 96.774 38.1) (end 96.774 41.148) (width 1) (layer B.Cu) (net 15) (tstamp 569E2768))
  (segment (start 96.774 41.148) (end 96.7105 41.2115) (width 1) (layer B.Cu) (net 15) (tstamp 569E2717))
  (segment (start 69.342 48.768) (end 72.136 48.768) (width 1) (layer B.Cu) (net 16))
  (segment (start 72.136 48.768) (end 72.39 48.514) (width 1) (layer B.Cu) (net 16) (tstamp 569E2608))
  (segment (start 85.852 41.148) (end 85.852 42.418) (width 1) (layer F.Cu) (net 17))
  (segment (start 94.684 42.984) (end 94.684 41.2075) (width 1) (layer F.Cu) (net 17) (tstamp 569E26A1))
  (segment (start 94.234 43.434) (end 94.684 42.984) (width 1) (layer F.Cu) (net 17) (tstamp 569E26A0))
  (segment (start 86.868 43.434) (end 94.234 43.434) (width 1) (layer F.Cu) (net 17) (tstamp 569E269D))
  (segment (start 85.852 42.418) (end 86.868 43.434) (width 1) (layer F.Cu) (net 17) (tstamp 569E269A))
  (segment (start 74.93 52.832) (end 78.74 52.832) (width 1) (layer B.Cu) (net 18))
  (segment (start 78.74 52.832) (end 81.28 50.292) (width 1) (layer B.Cu) (net 18) (tstamp 569E1F65))

  (zone (net 0) (net_name "") (layer F.Cu) (tstamp 569E180F) (hatch edge 0.508)
    (connect_pads (clearance 0.508))
    (min_thickness 0.254)
    (keepout (tracks not_allowed) (vias not_allowed) (copperpour allowed))
    (fill (arc_segments 16) (thermal_gap 0.508) (thermal_bridge_width 0.508))
    (polygon
      (pts
        (xy 114.554 40.386) (xy 108.458 40.386) (xy 108.458 25.4) (xy 114.554 25.4)
      )
    )
  )
  (zone (net 0) (net_name "") (layer B.Cu) (tstamp 569E180F) (hatch edge 0.508)
    (connect_pads (clearance 0.508))
    (min_thickness 0.254)
    (keepout (tracks not_allowed) (vias not_allowed) (copperpour allowed))
    (fill (arc_segments 16) (thermal_gap 0.508) (thermal_bridge_width 0.508))
    (polygon
      (pts
        (xy 114.554 40.386) (xy 108.458 40.386) (xy 108.458 25.4) (xy 114.554 25.4)
      )
    )
  )
)
