PCBNEW-LibModule-V1  mié 10 feb 2016 10:58:16 CET
# encoding utf-8
Units mm
$INDEX
Power 5V
Power_USB_hack
USB_Power_Hack_v2
bornier2
$EndINDEX
$MODULE Power 5V
Po 0 0 0 15 569DFB98 00000000 ~~
Li Power 5V
Sc 0
AR 
Op 0 0 0
T0 0 0 1 1 0 0.15 N V 21 N "Power 5V"
T1 0 0 1 1 0 0.15 N V 21 N "VAL**"
$EndMODULE Power 5V
$MODULE Power_USB_hack
Po 0 0 0 15 569DFE8C 00000000 ~~
Li Power_USB_hack
Sc 0
AR 
Op 0 0 0
T0 0.254 8.89 1 1 0 0.15 N V 21 N "Power 5V"
T1 0.127 -8.8265 1 1 0 0.15 N V 21 N "VAL**"
DS -25.019 -10.033 25.019 -10.033 0.15 21
DS 25.019 -10.033 25.019 9.9695 0.15 21
DS 25.019 9.9695 -25.019 9.9695 0.15 21
DS -25.019 9.9695 -25.019 -10.033 0.15 21
$PAD
Sh "1" C 2.5 2.5 0 0 0
Dr 1 0 0
At STD N 00E0FFFF
Ne 0 ""
Po -24.765 -3.937
$EndPAD
$PAD
Sh "2" C 2.5 2.5 0 0 0
Dr 1 0 0
At STD N 00E0FFFF
Ne 0 ""
Po -24.765 3.937
$EndPAD
$PAD
Sh "4" C 2 2 0 0 0
Dr 1 0 0
At STD N 00E0FFFF
Ne 0 ""
Po 24.765 -3.937
$EndPAD
$PAD
Sh "3" C 2 2 0 0 0
Dr 1 0 0
At STD N 00E0FFFF
Ne 0 ""
Po 24.765 3.937
$EndPAD
$EndMODULE Power_USB_hack
$MODULE USB_Power_Hack_v2
Po 0 0 0 15 56B89737 00000000 ~~
Li USB_Power_Hack_v2
Sc 0
AR /569CE00E
Op 0 0 0
T0 13.5255 20.828 1 1 0 0.15 N V 21 N "T1"
T1 0 0 1 1 0 0.15 N V 21 N "220 VAC 5 VDC"
DS -8.4455 -3.175 34.6075 -3.175 0.15 21
DS 34.6075 -3.175 34.6075 21.844 0.15 21
DS 34.6075 21.844 -8.4455 21.844 0.15 21
DS -8.4455 21.844 -8.4455 -3.175 0.15 21
$PAD
Sh "2" C 2.5 2.5 0 0 900
Dr 1 0 0
At STD N 00E0FFFF
Ne 2 "/AC_L"
Po -9.93775 20.28825
$EndPAD
$PAD
Sh "1" C 2.5 2.5 0 0 900
Dr 1 0 0
At STD N 00E0FFFF
Ne 3 "/AC_N"
Po -9.93775 16.54175
$EndPAD
$PAD
Sh "3" C 2 2 0 0 0
Dr 1 0 0
At STD N 00E0FFFF
Ne 1 "/5Vcc"
Po 36.195 3.302
$EndPAD
$PAD
Sh "4" C 2 2 0 0 0
Dr 1 0 0
At STD N 00E0FFFF
Ne 4 "/GND"
Po 36.195 0.4445
$EndPAD
$EndMODULE USB_Power_Hack_v2
$MODULE bornier2
Po 0 0 0 15 56BB09A0 00000000 ~~
Li bornier2
Cd Bornier d'alimentation 2 pins
Kw DEV
Sc 0
AR /569CE2FA
Op 0 0 0
T0 0 -5.08 1.524 1.524 0 0.3048 N I 21 N "P1"
T1 6.477 0.762 1.524 1.524 900 0.3048 N V 21 N "INPUT"
DS 5.08 2.54 -5.08 2.54 0.3048 24
DS 5.08 3.81 5.08 -3.81 0.3048 24
DS 5.08 -3.81 -5.08 -3.81 0.3048 24
DS -5.08 -3.81 -5.08 3.81 0.3048 24
DS -5.08 3.81 5.08 3.81 0.3048 24
$PAD
Sh "1" R 2.54 2.54 0 0 0
Dr 1.524 0 0
At STD N 00E0FFFF
Ne 1 "/AC_L"
Po -2.54 0
$EndPAD
$PAD
Sh "2" C 2.54 2.54 0 0 0
Dr 1.524 0 0
At STD N 00E0FFFF
Ne 2 "/AC_N"
Po 2.54 0
$EndPAD
$SHAPE3D
Na "device/bornier_2.wrl"
Sc 1 1 1
Of 0 0 0
Ro 0 0 0
$EndSHAPE3D
$EndMODULE bornier2
$EndLIBRARY
