PCBNEW-LibModule-V1  lun 18 ene 2016 15:57:22 CET
# encoding utf-8
Units mm
$INDEX
RELAY-2
$EndINDEX
$MODULE RELAY-2
Po 0 0 0 15 56695659 00000000 ~~
Li RELAY-2
Sc 0
AR 
Op 0 0 0
T0 5.715 10.541 1 1 0 0.15 N V 21 N "RELAY-2"
T1 5.969 1.016 1 1 0 0.15 N V 21 N "VAL**"
DS -4.064 11.811 -4.064 -0.762 0.15 21
DS -4.064 -0.762 26.416 -0.762 0.15 21
DS 26.416 -0.762 26.416 11.811 0.15 21
DS 26.416 11.811 -4.064 11.811 0.15 21
$PAD
Sh "1" C 2.7 2.7 0 0 0
Dr 1.5 0 0
At STD N 00E0FFFF
Ne 0 ""
Po -1.524 1.778
$EndPAD
$PAD
Sh "2" C 2.7 2.7 0 0 0
Dr 1.5 0 0
At STD N 00E0FFFF
Ne 0 ""
Po -1.524 9.271
$EndPAD
$PAD
Sh "11" C 2.7 2.7 0 0 0
Dr 1.5 0 0
At STD N 00E0FFFF
Ne 0 ""
Po 18.796 9.271
$EndPAD
$PAD
Sh "12" C 2.7 2.7 0 0 0
Dr 1.5 0 0
At STD N 00E0FFFF
Ne 0 ""
Po 13.716 9.271
$EndPAD
$PAD
Sh "14" C 2.7 2.7 0 0 0
Dr 1.5 0 0
At STD N 00E0FFFF
Ne 0 ""
Po 23.876 9.271
$EndPAD
$PAD
Sh "11" C 2.7 2.7 0 0 0
Dr 1.5 0 0
At STD N 00E0FFFF
Ne 0 ""
Po 18.796 1.778
$EndPAD
$PAD
Sh "12" C 2.7 2.7 0 0 0
Dr 1.5 0 0
At STD N 00E0FFFF
Ne 0 ""
Po 13.716 1.778
$EndPAD
$PAD
Sh "14" C 2.7 2.7 0 0 0
Dr 1.5 0 0
At STD N 00E0FFFF
Ne 0 ""
Po 23.876 1.778
$EndPAD
$EndMODULE RELAY-2
$EndLIBRARY
