PCBNEW-LibModule-V1  mar 19 ene 2016 10:46:28 CET
# encoding utf-8
Units mm
$INDEX
ESP8266-ESP-12E
$EndINDEX
$MODULE ESP8266-ESP-12E
Po 0 0 0 15 569E05E1 00000000 ~~
Li ESP8266-ESP-12E
Cd ESP8266 ESP-03 wifi module -- Phillip Pearson
Sc 0
AR /569CDF5C
Op 0 0 0
T0 2.0955 7.239 1 1 0 0.15 N V 21 N "U2"
T1 1.778 -12.7635 1 1 0 0.15 N V 21 N "ESP866_ESP-12E"
DS -8.001 -11.811 8.001 -11.811 0.15 21
DS 8.001 -11.811 8.001 12.192 0.15 21
DS 8.001 12.192 7.5565 12.192 0.15 21
DS -8.001 12.192 -8.001 -11.811 0.15 21
DS 7.5565 12.192 -8.001 12.192 0.15 21
$PAD
Sh "7" R 2 1 0 0 0
Dr 0 0 0
At SMD N 00888000
Ne 0 ""
Po -8.505 8.1225
$EndPAD
$PAD
Sh "6" R 2 1 0 0 0
Dr 0 0 0
At SMD N 00888000
Ne 0 ""
Po -8.4415 6.186
$EndPAD
$PAD
Sh "5" R 2 1 0 0 0
Dr 0 0 0
At SMD N 00888000
Ne 0 ""
Po -8.4415 4.186
$EndPAD
$PAD
Sh "4" R 2 1 0 0 0
Dr 0 0 0
At SMD N 00888000
Ne 0 ""
Po -8.4415 2.186
$EndPAD
$PAD
Sh "3" R 2 1 0 0 0
Dr 0 0 0
At SMD N 00888000
Ne 8 "N-0000015"
Po -8.4415 0.186
$EndPAD
$PAD
Sh "2" R 2 1 0 0 0
Dr 0 0 0
At SMD N 00888000
Ne 0 ""
Po -8.4415 -1.814
$EndPAD
$PAD
Sh "1" R 2 1 0 0 0
Dr 0 0 0
At SMD N 00888000
Ne 9 "N-000002"
Po -8.4415 -3.814
$EndPAD
$PAD
Sh "16" R 2 1 0 0 0
Dr 0 0 0
At SMD N 00888000
Ne 11 "N-000004"
Po 8.4415 8.186
$EndPAD
$PAD
Sh "17" R 2 1 0 0 0
Dr 0 0 0
At SMD N 00888000
Ne 7 "N-000001"
Po 8.4455 6.1595
$EndPAD
$PAD
Sh "18" R 2 1 0 0 0
Dr 0 0 0
At SMD N 00888000
Ne 10 "N-000003"
Po 8.4415 4.186
$EndPAD
$PAD
Sh "19" R 2 1 0 0 0
Dr 0 0 0
At SMD N 00888000
Ne 5 "/LED"
Po 8.4415 2.186
$EndPAD
$PAD
Sh "20" R 2 1 0 0 0
Dr 0 0 0
At SMD N 00888000
Ne 6 "/RELAY"
Po 8.4415 0.186
$EndPAD
$PAD
Sh "21" R 2 1 0 0 0
Dr 0 0 0
At SMD N 00888000
Ne 2 "/ESP_RX"
Po 8.4415 -1.814
$EndPAD
$PAD
Sh "22" R 2 1 0 0 0
Dr 0 0 0
At SMD N 00888000
Ne 3 "/ESP_TX"
Po 8.4415 -3.814
$EndPAD
$PAD
Sh "8" R 2 1 0 0 0
Dr 0 0 0
At SMD N 00888000
Ne 1 "/3.3Vcc"
Po -8.509 10.16
$EndPAD
$PAD
Sh "9" R 2 1 0 0 900
Dr 0 0 0
At SMD N 00888000
Ne 0 ""
Po -5.0165 12.573
$EndPAD
$PAD
Sh "10" R 2 1 0 0 900
Dr 0 0 0
At SMD N 00888000
Ne 0 ""
Po -2.9845 12.573
$EndPAD
$PAD
Sh "11" R 2 1 0 0 900
Dr 0 0 0
At SMD N 00888000
Ne 0 ""
Po -0.9525 12.573
$EndPAD
$PAD
Sh "12" R 2 1 0 0 900
Dr 0 0 0
At SMD N 00888000
Ne 0 ""
Po 1.0795 12.573
$EndPAD
$PAD
Sh "13" R 2 1 0 0 900
Dr 0 0 0
At SMD N 00888000
Ne 0 ""
Po 3.1115 12.573
$EndPAD
$PAD
Sh "14" R 2 1 0 0 900
Dr 0 0 0
At SMD N 00888000
Ne 0 ""
Po 5.1435 12.573
$EndPAD
$PAD
Sh "15" R 2 1 0 0 0
Dr 0 0 0
At SMD N 00888000
Ne 4 "/GND"
Po 8.4455 10.2235
$EndPAD
$EndMODULE ESP8266-ESP-12E
$EndLIBRARY
