PCBNEW-LibModule-V1  lun 18 ene 2016 16:31:25 CET
# encoding utf-8
Units mm
$INDEX
TO220_VERT_123
$EndINDEX
$MODULE TO220_VERT_123
Po 0 0 0 15 569D053F 00000000 ~~
Li TO220_VERT_123
Cd Regulateur TO220 serie LM78xx
Kw TR TO220
Sc 0
AR 
Op 0 0 0
T0 -3.175 0 1.524 1.016 900 0.2032 N V 21 N "TO220_VERT_123"
T1 0.635 -6.35 1.524 1.016 0 0.2032 N V 21 N "VAL**"
DS 1.905 -5.08 2.54 -5.08 0.381 21
DS 2.54 -5.08 2.54 5.08 0.381 21
DS 2.54 5.08 1.905 5.08 0.381 21
DS -1.905 -5.08 1.905 -5.08 0.381 21
DS 1.905 -5.08 1.905 5.08 0.381 21
DS 1.905 5.08 -1.905 5.08 0.381 21
DS -1.905 5.08 -1.905 -5.08 0.381 21
$PAD
Sh "3" C 1.778 1.778 0 0 0
Dr 1.016 0 0
At STD N 00E0FFFF
Ne 0 ""
Po 0 -2.54
$EndPAD
$PAD
Sh "2" C 1.778 1.778 0 0 0
Dr 1.016 0 0
At STD N 00E0FFFF
Ne 0 ""
Po 0 0
$EndPAD
$PAD
Sh "1" R 1.778 1.778 0 0 0
Dr 1.016 0 0
At STD N 00E0FFFF
Ne 0 ""
Po 0 2.54
$EndPAD
$EndMODULE TO220_VERT_123
$EndLIBRARY
